Lobanov_DD_RL6-69_LR1/simulation/qsim/LR1.msim.vcd
$comment
	File created using the following command:
		vcd file LR1.msim.vcd -direction
$end
$date
	Thu Apr 13 17:40:16 2023
$end
$version
	ModelSim Version 10.1d
$end
$timescale
	1ps
$end
$scope module SchematicStatus_vlg_vec_tst $end
$var reg 4 ! ten [0:3] $end
$var reg 1 " Timer_status $end
$var reg 4 # unit [0:3] $end
$var wire 1 $ TimerReset $end
$var wire 1 % sampler $end
$scope module i1 $end
$var wire 1 & gnd $end
$var wire 1 ' vcc $end
$var wire 1 ( unknown $end
$var tri1 1 ) devclrn $end
$var tri1 1 * devpor $end
$var tri1 1 + devoe $end
$var wire 1 , unit[1]~input_o $end
$var wire 1 - ten[0]~input_o $end
$var wire 1 . TimerReset~output_o $end
$var wire 1 / unit[0]~input_o $end
$var wire 1 0 unit[2]~input_o $end
$var wire 1 1 Timer_status~input_o $end
$var wire 1 2 inst1~0_combout $end
$var wire 1 3 ten[3]~input_o $end
$var wire 1 4 ten[1]~input_o $end
$var wire 1 5 ten[2]~input_o $end
$var wire 1 6 unit[3]~input_o $end
$var wire 1 7 inst1~1_combout $end
$var wire 1 8 inst1~2_combout $end
$upscope $end
$upscope $end
$enddefinitions $end
#0
$dumpvars
b0 !
0"
b0 #
0$
x%
0&
1'
x(
1)
1*
1+
0,
0-
0.
0/
00
01
02
03
04
05
06
07
08
$end
#5000
b1000 !
b1000 #
1/
1-
0%
12
17
18
1.
1$
#10000
b1100 !
b1100 #
b100 !
b100 #
1,
0/
14
0-
1%
#15000
b1100 !
b1100 #
1/
1-
0%
#20000
b1110 !
b1110 #
b1010 !
b1010 #
b10 !
b10 #
10
0,
0/
15
04
0-
1%
#25000
b1010 !
b1010 #
1/
1-
0%
#30000
b1110 !
b1110 #
b110 !
b110 #
1,
0/
14
0-
1%
#35000
b1110 !
b1110 #
1/
1-
0%
#40000
b1111 !
b1111 #
b1101 !
b1101 #
b1001 !
b1001 #
b1 !
b1 #
16
00
0,
0/
13
05
04
0-
1%
02
#45000
b1001 !
b1001 #
1/
1-
0%
12
#50000
1"
b1101 !
b1101 #
b101 !
b101 #
11
1,
0/
14
0-
1%
#55000
b1101 !
b1101 #
1/
1-
0%
#60000
b1111 !
b1111 #
b1011 !
b1011 #
b11 !
b11 #
10
0,
0/
15
04
0-
1%
#65000
b1011 !
b1011 #
1/
1-
0%
#70000
b1111 !
b1111 #
b111 !
b111 #
1,
0/
14
0-
1%
#75000
b1111 !
b1111 #
1/
1-
0%
#80000
b1110 !
b1110 #
b1100 !
b1100 #
b1000 !
b1000 #
b0 !
b0 #
06
00
0,
0/
03
05
04
0-
1%
07
#85000
b1000 !
b1000 #
1/
1-
0%
17
#90000
b1100 !
b1100 #
b100 !
b100 #
1,
0/
14
0-
1%
#95000
b1100 !
b1100 #
1/
1-
0%
#100000
b1110 !
b1110 #
b1010 !
b1010 #
b10 !
b10 #
10
0,
0/
15
04
0-
1%
#105000
b1010 !
b1010 #
1/
1-
0%
#110000
b1110 !
b1110 #
b110 !
b110 #
1,
0/
14
0-
1%
#115000
b1110 !
b1110 #
1/
1-
0%
#120000
b1111 !
b1111 #
b1101 !
b1101 #
b1001 !
b1001 #
b1 !
b1 #
16
00
0,
0/
13
05
04
0-
1%
#125000
b1001 !
b1001 #
1/
1-
0%
#130000
b1101 !
b1101 #
b101 !
b101 #
1,
0/
14
0-
1%
#135000
b1101 !
b1101 #
1/
1-
0%
#140000
b1111 !
b1111 #
b1011 !
b1011 #
b11 !
b11 #
10
0,
0/
15
04
0-
1%
#145000
b1011 !
b1011 #
1/
1-
0%
#150000
b1111 !
b1111 #
b111 !
b111 #
1,
0/
14
0-
1%
#155000
b1111 !
b1111 #
1/
1-
0%
#160000
b1110 !
b1110 #
b1100 !
b1100 #
b1000 !
b1000 #
b0 !
b0 #
06
00
0,
0/
03
05
04
0-
1%
07
#165000
b1000 !
b1000 #
1/
1-
0%
17
#170000
b1100 !
b1100 #
b100 !
b100 #
1,
0/
14
0-
1%
#175000
b1100 !
b1100 #
1/
1-
0%
#180000
b1110 !
b1110 #
b1010 !
b1010 #
b10 !
b10 #
10
0,
0/
15
04
0-
1%
#185000
b1010 !
b1010 #
1/
1-
0%
#190000
b1110 !
b1110 #
b110 !
b110 #
1,
0/
14
0-
1%
#195000
b1110 !
b1110 #
1/
1-
0%
#200000
b1111 !
b1111 #
b1101 !
b1101 #
b1001 !
b1001 #
b1 !
b1 #
16
00
0,
0/
13
05
04
0-
1%
#205000
b1001 !
b1001 #
1/
1-
0%
#210000
b1101 !
b1101 #
b101 !
b101 #
1,
0/
14
0-
1%
#215000
b1101 !
b1101 #
1/
1-
0%
#220000
b1111 !
b1111 #
b1011 !
b1011 #
b11 !
b11 #
10
0,
0/
15
04
0-
1%
#225000
b1011 !
b1011 #
1/
1-
0%
#230000
b1111 !
b1111 #
b111 !
b111 #
1,
0/
14
0-
1%
#235000
b1111 !
b1111 #
1/
1-
0%
#240000
b1110 !
b1110 #
b1100 !
b1100 #
b1000 !
b1000 #
b0 !
b0 #
06
00
0,
0/
03
05
04
0-
1%
07
#245000
b1000 !
b1000 #
1/
1-
0%
17
#250000
b1100 !
b1100 #
b100 !
b100 #
1,
0/
14
0-
1%
#255000
b1100 !
b1100 #
1/
1-
0%
#260000
b1110 !
b1110 #
b1010 !
b1010 #
b10 !
b10 #
10
0,
0/
15
04
0-
1%
#265000
b1010 !
b1010 #
1/
1-
0%
#270000
0"
b1110 !
b1110 #
b110 !
b110 #
01
1,
0/
14
0-
1%
#275000
b1110 !
b1110 #
1/
1-
0%
#280000
b1111 !
b1111 #
b1101 !
b1101 #
b1001 !
b1001 #
b1 !
b1 #
16
00
0,
0/
13
05
04
0-
1%
02
#285000
b1001 !
b1001 #
1/
1-
0%
12
#290000
b1101 !
b1101 #
b101 !
b101 #
1,
0/
14
0-
1%
#295000
b1101 !
b1101 #
1/
1-
0%
#300000
b1111 !
b1111 #
b1011 !
b1011 #
b11 !
b11 #
10
0,
0/
15
04
0-
1%
#305000
b1011 !
b1011 #
1/
1-
0%
#310000
b1111 !
b1111 #
b111 !
b111 #
1,
0/
14
0-
1%
#315000
b1111 !
b1111 #
1/
1-
0%
#320000
b1110 !
b1110 #
b1100 !
b1100 #
b1000 !
b1000 #
b0 !
b0 #
06
00
0,
0/
03
05
04
0-
1%
07
02
08
0.
0$
#325000
b1000 !
b1000 #
1/
1-
0%
12
17
18
1.
1$
#330000
b1100 !
b1100 #
b100 !
b100 #
1,
0/
14
0-
1%
#335000
b1100 !
b1100 #
1/
1-
0%
#340000
b1110 !
b1110 #
b1010 !
b1010 #
b10 !
b10 #
10
0,
0/
15
04
0-
1%
#345000
b1010 !
b1010 #
1/
1-
0%
#350000
b1110 !
b1110 #
b110 !
b110 #
1,
0/
14
0-
1%
#355000
b1110 !
b1110 #
1/
1-
0%
#360000
b1111 !
b1111 #
b1101 !
b1101 #
b1001 !
b1001 #
b1 !
b1 #
16
00
0,
0/
13
05
04
0-
1%
02
#365000
b1001 !
b1001 #
1/
1-
0%
12
#370000
b1101 !
b1101 #
b101 !
b101 #
1,
0/
14
0-
1%
#375000
b1101 !
b1101 #
1/
1-
0%
#380000
b1111 !
b1111 #
b1011 !
b1011 #
b11 !
b11 #
10
0,
0/
15
04
0-
1%
#385000
b1011 !
b1011 #
1/
1-
0%
#390000
b1111 !
b1111 #
b111 !
b111 #
1,
0/
14
0-
1%
#395000
b1111 !
b1111 #
1/
1-
0%
#400000
b1110 !
b1110 #
b1100 !
b1100 #
b1000 !
b1000 #
b0 !
b0 #
06
00
0,
0/
03
05
04
0-
1%
07
02
08
0.
0$
#405000
b1000 !
b1000 #
1/
1-
0%
12
17
18
1.
1$
#410000
b1100 !
b1100 #
b100 !
b100 #
1,
0/
14
0-
1%
#415000
b1100 !
b1100 #
1/
1-
0%
#420000
b1110 !
b1110 #
b1010 !
b1010 #
b10 !
b10 #
10
0,
0/
15
04
0-
1%
#425000
b1010 !
b1010 #
1/
1-
0%
#430000
b1110 !
b1110 #
b110 !
b110 #
1,
0/
14
0-
1%
#435000
b1110 !
b1110 #
1/
1-
0%
#440000
b1111 !
b1111 #
b1101 !
b1101 #
b1001 !
b1001 #
b1 !
b1 #
16
00
0,
0/
13
05
04
0-
1%
02
#445000
b1001 !
b1001 #
1/
1-
0%
12
#450000
b1101 !
b1101 #
b101 !
b101 #
1,
0/
14
0-
1%
#455000
b1101 !
b1101 #
1/
1-
0%
#460000
b1111 !
b1111 #
b1011 !
b1011 #
b11 !
b11 #
10
0,
0/
15
04
0-
1%
#465000
b1011 !
b1011 #
1/
1-
0%
#470000
b1111 !
b1111 #
b111 !
b111 #
1,
0/
14
0-
1%
#475000
b1111 !
b1111 #
1/
1-
0%
#480000
b1110 !
b1110 #
b1100 !
b1100 #
b1000 !
b1000 #
b0 !
b0 #
06
00
0,
0/
03
05
04
0-
1%
07
02
08
0.
0$
#485000
b1000 !
b1000 #
1/
1-
0%
12
17
18
1.
1$
#490000
b1100 !
b1100 #
b100 !
b100 #
1,
0/
14
0-
1%
#495000
b1100 !
b1100 #
1/
1-
0%
#500000
b1110 !
b1110 #
b1010 !
b1010 #
b10 !
b10 #
10
0,
0/
15
04
0-
1%
#505000
b1010 !
b1010 #
1/
1-
0%
#510000
b1110 !
b1110 #
b110 !
b110 #
1,
0/
14
0-
1%
#515000
b1110 !
b1110 #
1/
1-
0%
#520000
b1111 !
b1111 #
b1101 !
b1101 #
b1001 !
b1001 #
b1 !
b1 #
16
00
0,
0/
13
05
04
0-
1%
02
#525000
b1001 !
b1001 #
1/
1-
0%
12
#530000
b1101 !
b1101 #
b101 !
b101 #
1,
0/
14
0-
1%
#535000
b1101 !
b1101 #
1/
1-
0%
#540000
b1111 !
b1111 #
b1011 !
b1011 #
b11 !
b11 #
10
0,
0/
15
04
0-
1%
#545000
b1011 !
b1011 #
1/
1-
0%
#550000
b1111 !
b1111 #
b111 !
b111 #
1,
0/
14
0-
1%
#555000
b1111 !
b1111 #
1/
1-
0%
#560000
b1110 !
b1110 #
b1100 !
b1100 #
b1000 !
b1000 #
b0 !
b0 #
06
00
0,
0/
03
05
04
0-
1%
07
02
08
0.
0$
#565000
b1000 !
b1000 #
1/
1-
0%
12
17
18
1.
1$
#570000
b1100 !
b1100 #
b100 !
b100 #
1,
0/
14
0-
1%
#575000
b1100 !
b1100 #
1/
1-
0%
#580000
b1110 !
b1110 #
b1010 !
b1010 #
b10 !
b10 #
10
0,
0/
15
04
0-
1%
#585000
b1010 !
b1010 #
1/
1-
0%
#590000
b1110 !
b1110 #
b110 !
b110 #
1,
0/
14
0-
1%
#595000
b1110 !
b1110 #
1/
1-
0%
#600000
b1111 !
b1111 #
b1101 !
b1101 #
b1001 !
b1001 #
b1 !
b1 #
16
00
0,
0/
13
05
04
0-
1%
02
#605000
b1001 !
b1001 #
1/
1-
0%
12
#610000
b1101 !
b1101 #
b101 !
b101 #
1,
0/
14
0-
1%
#615000
b1101 !
b1101 #
1/
1-
0%
#620000
b1111 !
b1111 #
b1011 !
b1011 #
b11 !
b11 #
10
0,
0/
15
04
0-
1%
#625000
b1011 !
b1011 #
1/
1-
0%
#630000
b1111 !
b1111 #
b111 !
b111 #
1,
0/
14
0-
1%
#635000
b1111 !
b1111 #
1/
1-
0%
#640000
b1110 !
b1110 #
b1100 !
b1100 #
b1000 !
b1000 #
b0 !
b0 #
06
00
0,
0/
03
05
04
0-
1%
07
02
08
0.
0$
#645000
b1000 !
b1000 #
1/
1-
0%
12
17
18
1.
1$
#650000
b1100 !
b1100 #
b100 !
b100 #
1,
0/
14
0-
1%
#655000
b1100 !
b1100 #
1/
1-
0%
#660000
b1110 !
b1110 #
b1010 !
b1010 #
b10 !
b10 #
10
0,
0/
15
04
0-
1%
#665000
b1010 !
b1010 #
1/
1-
0%
#670000
b1110 !
b1110 #
b110 !
b110 #
1,
0/
14
0-
1%
#675000
b1110 !
b1110 #
1/
1-
0%
#680000
b1111 !
b1111 #
b1101 !
b1101 #
b1001 !
b1001 #
b1 !
b1 #
16
00
0,
0/
13
05
04
0-
1%
02
#685000
b1001 !
b1001 #
1/
1-
0%
12
#690000
b1101 !
b1101 #
b101 !
b101 #
1,
0/
14
0-
1%
#695000
b1101 !
b1101 #
1/
1-
0%
#700000
b1111 !
b1111 #
b1011 !
b1011 #
b11 !
b11 #
10
0,
0/
15
04
0-
1%
#705000
b1011 !
b1011 #
1/
1-
0%
#710000
b1111 !
b1111 #
b111 !
b111 #
1,
0/
14
0-
1%
#715000
b1111 !
b1111 #
1/
1-
0%
#720000
b1110 !
b1110 #
b1100 !
b1100 #
b1000 !
b1000 #
b0 !
b0 #
06
00
0,
0/
03
05
04
0-
1%
07
02
08
0.
0$
#725000
b1000 !
b1000 #
1/
1-
0%
12
17
18
1.
1$
#730000
b1100 !
b1100 #
b100 !
b100 #
1,
0/
14
0-
1%
#735000
b1100 !
b1100 #
1/
1-
0%
#740000
b1110 !
b1110 #
b1010 !
b1010 #
b10 !
b10 #
10
0,
0/
15
04
0-
1%
#745000
b1010 !
b1010 #
1/
1-
0%
#750000
b1110 !
b1110 #
b110 !
b110 #
1,
0/
14
0-
1%
#755000
b1110 !
b1110 #
1/
1-
0%
#760000
b1111 !
b1111 #
b1101 !
b1101 #
b1001 !
b1001 #
b1 !
b1 #
16
00
0,
0/
13
05
04
0-
1%
02
#765000
b1001 !
b1001 #
1/
1-
0%
12
#770000
b1101 !
b1101 #
b101 !
b101 #
1,
0/
14
0-
1%
#775000
b1101 !
b1101 #
1/
1-
0%
#780000
b1111 !
b1111 #
b1011 !
b1011 #
b11 !
b11 #
10
0,
0/
15
04
0-
1%
#785000
b1011 !
b1011 #
1/
1-
0%
#790000
b1111 !
b1111 #
b111 !
b111 #
1,
0/
14
0-
1%
#795000
b1111 !
b1111 #
1/
1-
0%
#800000
b1110 !
b1110 #
b1100 !
b1100 #
b1000 !
b1000 #
b0 !
b0 #
06
00
0,
0/
03
05
04
0-
1%
07
02
08
0.
0$
#805000
b1000 !
b1000 #
1/
1-
0%
12
17
18
1.
1$
#810000
b1100 !
b1100 #
b100 !
b100 #
1,
0/
14
0-
1%
#815000
b1100 !
b1100 #
1/
1-
0%
#820000
b1110 !
b1110 #
b1010 !
b1010 #
b10 !
b10 #
10
0,
0/
15
04
0-
1%
#825000
b1010 !
b1010 #
1/
1-
0%
#830000
b1110 !
b1110 #
b110 !
b110 #
1,
0/
14
0-
1%
#835000
b1110 !
b1110 #
1/
1-
0%
#840000
b1111 !
b1111 #
b1101 !
b1101 #
b1001 !
b1001 #
b1 !
b1 #
16
00
0,
0/
13
05
04
0-
1%
02
#845000
b1001 !
b1001 #
1/
1-
0%
12
#850000
b1101 !
b1101 #
b101 !
b101 #
1,
0/
14
0-
1%
#855000
b1101 !
b1101 #
1/
1-
0%
#860000
b1111 !
b1111 #
b1011 !
b1011 #
b11 !
b11 #
10
0,
0/
15
04
0-
1%
#865000
b1011 !
b1011 #
1/
1-
0%
#870000
b1111 !
b1111 #
b111 !
b111 #
1,
0/
14
0-
1%
#875000
b1111 !
b1111 #
1/
1-
0%
#880000
b1110 !
b1110 #
b1100 !
b1100 #
b1000 !
b1000 #
b0 !
b0 #
06
00
0,
0/
03
05
04
0-
1%
07
02
08
0.
0$
#885000
b1000 !
b1000 #
1/
1-
0%
12
17
18
1.
1$
#890000
b1100 !
b1100 #
b100 !
b100 #
1,
0/
14
0-
1%
#895000
b1100 !
b1100 #
1/
1-
0%
#900000
b1110 !
b1110 #
b1010 !
b1010 #
b10 !
b10 #
10
0,
0/
15
04
0-
1%
#905000
b1010 !
b1010 #
1/
1-
0%
#910000
b1110 !
b1110 #
b110 !
b110 #
1,
0/
14
0-
1%
#915000
b1110 !
b1110 #
1/
1-
0%
#920000
b1111 !
b1111 #
b1101 !
b1101 #
b1001 !
b1001 #
b1 !
b1 #
16
00
0,
0/
13
05
04
0-
1%
02
#925000
b1001 !
b1001 #
1/
1-
0%
12
#930000
b1101 !
b1101 #
b101 !
b101 #
1,
0/
14
0-
1%
#935000
b1101 !
b1101 #
1/
1-
0%
#940000
b1111 !
b1111 #
b1011 !
b1011 #
b11 !
b11 #
10
0,
0/
15
04
0-
1%
#945000
b1011 !
b1011 #
1/
1-
0%
#950000
b1111 !
b1111 #
b111 !
b111 #
1,
0/
14
0-
1%
#955000
b1111 !
b1111 #
1/
1-
0%
#960000
b1110 !
b1110 #
b1100 !
b1100 #
b1000 !
b1000 #
b0 !
b0 #
06
00
0,
0/
03
05
04
0-
1%
07
02
08
0.
0$
#965000
b1000 !
b1000 #
1/
1-
0%
12
17
18
1.
1$
#970000
b1100 !
b1100 #
b100 !
b100 #
1,
0/
14
0-
1%
#975000
b1100 !
b1100 #
1/
1-
0%
#980000
b1110 !
b1110 #
b1010 !
b1010 #
b10 !
b10 #
10
0,
0/
15
04
0-
1%
#985000
b1010 !
b1010 #
1/
1-
0%
#990000
b1110 !
b1110 #
b110 !
b110 #
1,
0/
14
0-
1%
#995000
b1110 !
b1110 #
1/
1-
0%
#1000000
b1111 !
b1111 #
b1101 !
b1101 #
b1001 !
b1001 #
b1 !
b1 #
16
00
0,
0/
13
05
04
0-
1%
02
#1005000
b1001 !
b1001 #
1/
1-
0%
12
#1010000
b1101 !
b1101 #
b101 !
b101 #
1,
0/
14
0-
1%
#1015000
b1101 !
b1101 #
1/
1-
0%
#1020000
b1111 !
b1111 #
b1011 !
b1011 #
b11 !
b11 #
10
0,
0/
15
04
0-
1%
#1025000
b1011 !
b1011 #
1/
1-
0%
#1030000
b1111 !
b1111 #
b111 !
b111 #
1,
0/
14
0-
1%
#1035000
b1111 !
b1111 #
1/
1-
0%
#1040000
b1110 !
b1110 #
b1100 !
b1100 #
b1000 !
b1000 #
b0 !
b0 #
06
00
0,
0/
03
05
04
0-
1%
07
02
08
0.
0$
#1045000
b1000 !
b1000 #
1/
1-
0%
12
17
18
1.
1$
#1050000
b1100 !
b1100 #
b100 !
b100 #
1,
0/
14
0-
1%
#1055000
b1100 !
b1100 #
1/
1-
0%
#1060000
b1110 !
b1110 #
b1010 !
b1010 #
b10 !
b10 #
10
0,
0/
15
04
0-
1%
#1065000
b1010 !
b1010 #
1/
1-
0%
#1070000
b1110 !
b1110 #
b110 !
b110 #
1,
0/
14
0-
1%
#1075000
b1110 !
b1110 #
1/
1-
0%
#1080000
b1111 !
b1111 #
b1101 !
b1101 #
b1001 !
b1001 #
b1 !
b1 #
16
00
0,
0/
13
05
04
0-
1%
02
#1085000
b1001 !
b1001 #
1/
1-
0%
12
#1090000
b1101 !
b1101 #
b101 !
b101 #
1,
0/
14
0-
1%
#1095000
b1101 !
b1101 #
1/
1-
0%
#1100000
b1111 !
b1111 #
b1011 !
b1011 #
b11 !
b11 #
10
0,
0/
15
04
0-
1%
#1105000
b1011 !
b1011 #
1/
1-
0%
#1110000
b1111 !
b1111 #
b111 !
b111 #
1,
0/
14
0-
1%
#1115000
b1111 !
b1111 #
1/
1-
0%
#1120000
b1110 !
b1110 #
b1100 !
b1100 #
b1000 !
b1000 #
b0 !
b0 #
06
00
0,
0/
03
05
04
0-
1%
07
02
08
0.
0$
#1125000
b1000 !
b1000 #
1/
1-
0%
12
17
18
1.
1$
#1130000
b1100 !
b1100 #
b100 !
b100 #
1,
0/
14
0-
1%
#1135000
b1100 !
b1100 #
1/
1-
0%
#1140000
b1110 !
b1110 #
b1010 !
b1010 #
b10 !
b10 #
10
0,
0/
15
04
0-
1%
#1145000
b1010 !
b1010 #
1/
1-
0%
#1150000
b1110 !
b1110 #
b110 !
b110 #
1,
0/
14
0-
1%
#1155000
b1110 !
b1110 #
1/
1-
0%
#1160000
b1111 !
b1111 #
b1101 !
b1101 #
b1001 !
b1001 #
b1 !
b1 #
16
00
0,
0/
13
05
04
0-
1%
02
#1165000
b1001 !
b1001 #
1/
1-
0%
12
#1170000
b1101 !
b1101 #
b101 !
b101 #
1,
0/
14
0-
1%
#1175000
b1101 !
b1101 #
1/
1-
0%
#1180000
b1111 !
b1111 #
b1011 !
b1011 #
b11 !
b11 #
10
0,
0/
15
04
0-
1%
#1185000
b1011 !
b1011 #
1/
1-
0%
#1190000
b1111 !
b1111 #
b111 !
b111 #
1,
0/
14
0-
1%
#1195000
b1111 !
b1111 #
1/
1-
0%
#1200000
b1110 !
b1110 #
b1100 !
b1100 #
b1000 !
b1000 #
b0 !
b0 #
06
00
0,
0/
03
05
04
0-
1%
07
02
08
0.
0$
#1205000
b1000 !
b1000 #
1/
1-
0%
12
17
18
1.
1$
#1210000
b1100 !
b1100 #
b100 !
b100 #
1,
0/
14
0-
1%
#1215000
b1100 !
b1100 #
1/
1-
0%
#1220000
b1110 !
b1110 #
b1010 !
b1010 #
b10 !
b10 #
10
0,
0/
15
04
0-
1%
#1225000
b1010 !
b1010 #
1/
1-
0%
#1230000
b1110 !
b1110 #
b110 !
b110 #
1,
0/
14
0-
1%
#1235000
b1110 !
b1110 #
1/
1-
0%
#1240000
b1111 !
b1111 #
b1101 !
b1101 #
b1001 !
b1001 #
b1 !
b1 #
16
00
0,
0/
13
05
04
0-
1%
02
#1245000
b1001 !
b1001 #
1/
1-
0%
12
#1250000
b1101 !
b1101 #
b101 !
b101 #
1,
0/
14
0-
1%
#1255000
b1101 !
b1101 #
1/
1-
0%
#1260000
b1111 !
b1111 #
b1011 !
b1011 #
b11 !
b11 #
10
0,
0/
15
04
0-
1%
#1265000
b1011 !
b1011 #
1/
1-
0%
#1270000
b1111 !
b1111 #
b111 !
b111 #
1,
0/
14
0-
1%
#1275000
b1111 !
b1111 #
1/
1-
0%
#1280000
b1110 !
b1110 #
b1100 !
b1100 #
b1000 !
b1000 #
b0 !
b0 #
06
00
0,
0/
03
05
04
0-
1%
07
02
08
0.
0$
#1285000
b1000 !
b1000 #
1/
1-
0%
12
17
18
1.
1$
#1290000
b1100 !
b1100 #
b100 !
b100 #
1,
0/
14
0-
1%
#1295000
b1100 !
b1100 #
1/
1-
0%
#1300000
b1110 !
b1110 #
b1010 !
b1010 #
b10 !
b10 #
10
0,
0/
15
04
0-
1%
#1305000
b1010 !
b1010 #
1/
1-
0%
#1310000
b1110 !
b1110 #
b110 !
b110 #
1,
0/
14
0-
1%
#1315000
b1110 !
b1110 #
1/
1-
0%
#1320000
b1111 !
b1111 #
b1101 !
b1101 #
b1001 !
b1001 #
b1 !
b1 #
16
00
0,
0/
13
05
04
0-
1%
02
#1325000
b1001 !
b1001 #
1/
1-
0%
12
#1330000
b1101 !
b1101 #
b101 !
b101 #
1,
0/
14
0-
1%
#1335000
b1101 !
b1101 #
1/
1-
0%
#1340000
b1111 !
b1111 #
b1011 !
b1011 #
b11 !
b11 #
10
0,
0/
15
04
0-
1%
#1345000
b1011 !
b1011 #
1/
1-
0%
#1350000
b1111 !
b1111 #
b111 !
b111 #
1,
0/
14
0-
1%
#1355000
b1111 !
b1111 #
1/
1-
0%
#1360000
b1110 !
b1110 #
b1100 !
b1100 #
b1000 !
b1000 #
b0 !
b0 #
06
00
0,
0/
03
05
04
0-
1%
07
02
08
0.
0$
#1365000
b1000 !
b1000 #
1/
1-
0%
12
17
18
1.
1$
#1370000
b1100 !
b1100 #
b100 !
b100 #
1,
0/
14
0-
1%
#1375000
b1100 !
b1100 #
1/
1-
0%
#1380000
b1110 !
b1110 #
b1010 !
b1010 #
b10 !
b10 #
10
0,
0/
15
04
0-
1%
#1385000
b1010 !
b1010 #
1/
1-
0%
#1390000
b1110 !
b1110 #
b110 !
b110 #
1,
0/
14
0-
1%
#1395000
b1110 !
b1110 #
1/
1-
0%
#1400000
b1111 !
b1111 #
b1101 !
b1101 #
b1001 !
b1001 #
b1 !
b1 #
16
00
0,
0/
13
05
04
0-
1%
02
#1405000
b1001 !
b1001 #
1/
1-
0%
12
#1410000
b1101 !
b1101 #
b101 !
b101 #
1,
0/
14
0-
1%
#1415000
b1101 !
b1101 #
1/
1-
0%
#1420000
b1111 !
b1111 #
b1011 !
b1011 #
b11 !
b11 #
10
0,
0/
15
04
0-
1%
#1425000
b1011 !
b1011 #
1/
1-
0%
#1430000
b1111 !
b1111 #
b111 !
b111 #
1,
0/
14
0-
1%
#1435000
b1111 !
b1111 #
1/
1-
0%
#1440000
b1110 !
b1110 #
b1100 !
b1100 #
b1000 !
b1000 #
b0 !
b0 #
06
00
0,
0/
03
05
04
0-
1%
07
02
08
0.
0$
#1445000
b1000 !
b1000 #
1/
1-
0%
12
17
18
1.
1$
#1450000
b1100 !
b1100 #
b100 !
b100 #
1,
0/
14
0-
1%
#1455000
b1100 !
b1100 #
1/
1-
0%
#1460000
b1110 !
b1110 #
b1010 !
b1010 #
b10 !
b10 #
10
0,
0/
15
04
0-
1%
#1465000
b1010 !
b1010 #
1/
1-
0%
#1470000
b1110 !
b1110 #
b110 !
b110 #
1,
0/
14
0-
1%
#1475000
b1110 !
b1110 #
1/
1-
0%
#1480000
b1111 !
b1111 #
b1101 !
b1101 #
b1001 !
b1001 #
b1 !
b1 #
16
00
0,
0/
13
05
04
0-
1%
02
#1485000
b1001 !
b1001 #
1/
1-
0%
12
#1490000
b1101 !
b1101 #
b101 !
b101 #
1,
0/
14
0-
1%
#1495000
b1101 !
b1101 #
1/
1-
0%
#1500000
b1111 !
b1111 #
b1011 !
b1011 #
b11 !
b11 #
10
0,
0/
15
04
0-
1%
#1505000
b1011 !
b1011 #
1/
1-
0%
#1510000
b1111 !
b1111 #
b111 !
b111 #
1,
0/
14
0-
1%
#1515000
b1111 !
b1111 #
1/
1-
0%
#1520000
b1110 !
b1110 #
b1100 !
b1100 #
b1000 !
b1000 #
b0 !
b0 #
06
00
0,
0/
03
05
04
0-
1%
07
02
08
0.
0$
#1525000
b1000 !
b1000 #
1/
1-
0%
12
17
18
1.
1$
#1530000
b1100 !
b1100 #
b100 !
b100 #
1,
0/
14
0-
1%
#1535000
b1100 !
b1100 #
1/
1-
0%
#1540000
b1110 !
b1110 #
b1010 !
b1010 #
b10 !
b10 #
10
0,
0/
15
04
0-
1%
#1545000
b1010 !
b1010 #
1/
1-
0%
#1550000
b1110 !
b1110 #
b110 !
b110 #
1,
0/
14
0-
1%
#1555000
b1110 !
b1110 #
1/
1-
0%
#1560000
b1111 !
b1111 #
b1101 !
b1101 #
b1001 !
b1001 #
b1 !
b1 #
16
00
0,
0/
13
05
04
0-
1%
02
#1565000
b1001 !
b1001 #
1/
1-
0%
12
#1570000
b1101 !
b1101 #
b101 !
b101 #
1,
0/
14
0-
1%
#1575000
b1101 !
b1101 #
1/
1-
0%
#1580000
b1111 !
b1111 #
b1011 !
b1011 #
b11 !
b11 #
10
0,
0/
15
04
0-
1%
#1585000
b1011 !
b1011 #
1/
1-
0%
#1590000
b1111 !
b1111 #
b111 !
b111 #
1,
0/
14
0-
1%
#1595000
b1111 !
b1111 #
1/
1-
0%
#1600000
b1110 !
b1110 #
b1100 !
b1100 #
b1000 !
b1000 #
b0 !
b0 #
06
00
0,
0/
03
05
04
0-
1%
07
02
08
0.
0$
#1605000
b1000 !
b1000 #
1/
1-
0%
12
17
18
1.
1$
#1610000
b1100 !
b1100 #
b100 !
b100 #
1,
0/
14
0-
1%
#1615000
b1100 !
b1100 #
1/
1-
0%
#1620000
b1110 !
b1110 #
b1010 !
b1010 #
b10 !
b10 #
10
0,
0/
15
04
0-
1%
#1625000
b1010 !
b1010 #
1/
1-
0%
#1630000
b1110 !
b1110 #
b110 !
b110 #
1,
0/
14
0-
1%
#1635000
b1110 !
b1110 #
1/
1-
0%
#1640000
b1111 !
b1111 #
b1101 !
b1101 #
b1001 !
b1001 #
b1 !
b1 #
16
00
0,
0/
13
05
04
0-
1%
02
#1645000
b1001 !
b1001 #
1/
1-
0%
12
#1650000
b1101 !
b1101 #
b101 !
b101 #
1,
0/
14
0-
1%
#1655000
b1101 !
b1101 #
1/
1-
0%
#1660000
b1111 !
b1111 #
b1011 !
b1011 #
b11 !
b11 #
10
0,
0/
15
04
0-
1%
#1665000
b1011 !
b1011 #
1/
1-
0%
#1670000
b1111 !
b1111 #
b111 !
b111 #
1,
0/
14
0-
1%
#1675000
b1111 !
b1111 #
1/
1-
0%
#1680000
b1110 !
b1110 #
b1100 !
b1100 #
b1000 !
b1000 #
b0 !
b0 #
06
00
0,
0/
03
05
04
0-
1%
07
02
08
0.
0$
#1685000
b1000 !
b1000 #
1/
1-
0%
12
17
18
1.
1$
#1690000
b1100 !
b1100 #
b100 !
b100 #
1,
0/
14
0-
1%
#1695000
b1100 !
b1100 #
1/
1-
0%
#1700000
b1110 !
b1110 #
b1010 !
b1010 #
b10 !
b10 #
10
0,
0/
15
04
0-
1%
#1705000
b1010 !
b1010 #
1/
1-
0%
#1710000
b1110 !
b1110 #
b110 !
b110 #
1,
0/
14
0-
1%
#1715000
b1110 !
b1110 #
1/
1-
0%
#1720000
b1111 !
b1111 #
b1101 !
b1101 #
b1001 !
b1001 #
b1 !
b1 #
16
00
0,
0/
13
05
04
0-
1%
02
#1725000
b1001 !
b1001 #
1/
1-
0%
12
#1730000
b1101 !
b1101 #
b101 !
b101 #
1,
0/
14
0-
1%
#1735000
b1101 !
b1101 #
1/
1-
0%
#1740000
b1111 !
b1111 #
b1011 !
b1011 #
b11 !
b11 #
10
0,
0/
15
04
0-
1%
#1745000
b1011 !
b1011 #
1/
1-
0%
#1750000
b1111 !
b1111 #
b111 !
b111 #
1,
0/
14
0-
1%
#1755000
b1111 !
b1111 #
1/
1-
0%
#1760000
b1110 !
b1110 #
b1100 !
b1100 #
b1000 !
b1000 #
b0 !
b0 #
06
00
0,
0/
03
05
04
0-
1%
07
02
08
0.
0$
